Project Milestone 3: Preliminary progress report
…
# gender wage ratio by demographics group 

cleaned_data_6 <- Combined_data %>% 
  mutate(wage_ratio_overall= women_median/men_median,
         wage_ratio_white= white_women_median/ white_men_median,
         wage_ratio_black=  black_women_median/ black_men_median,
         wage_ratio_hispanic= hispanic_women_median/ hispanic_men_median) %>% 
  select(year,wage_ratio_overall, wage_ratio_white, wage_ratio_black, wage_ratio_hispanic)  
cleaned_data_6 %>% 
  select(year,wage_ratio_overall, wage_ratio_white, wage_ratio_black, wage_ratio_hispanic) 
## # A tibble: 50 × 5
##     year wage_ratio_overall wage_ratio_white wage_ratio_black
##    <dbl>              <dbl>            <dbl>            <dbl>
##  1  1973              0.629            0.615            0.694
##  2  1974              0.628            0.620            0.708
##  3  1975              0.626            0.621            0.700
##  4  1976              0.642            0.634            0.728
##  5  1977              0.632            0.615            0.752
##  6  1978              0.625            0.614            0.709
##  7  1979              0.634            0.606            0.755
##  8  1980              0.637            0.614            0.755
##  9  1981              0.654            0.626            0.760
## 10  1982              0.646            0.628            0.792
## # ℹ 40 more rows
## # ℹ 1 more variable: wage_ratio_hispanic <dbl>
…
cleaned_data_2
## # A tibble: 500 × 5
##     year demographic            Wages Gender Education_level        
##    <dbl> <chr>                  <dbl> <chr>  <fct>                  
##  1  1973 men_less_than_hs        21.2 Men    "less than high school"
##  2  1973 men_high_school         26.9 Men    "high school"          
##  3  1973 men_some_college        27.7 Men    "some college"         
##  4  1973 men_bachelors_degree    37.7 Men    "Bachelor Degree"      
##  5  1973 men_advanced_degree     40.1 Men    " Advanced Degree"     
##  6  1973 women_less_than_hs      12.9 Women  "less than high school"
##  7  1973 women_high_school       17.0 Women  "high school"          
##  8  1973 women_some_college      18.4 Women  "some college"         
##  9  1973 women_bachelors_degree  25.5 Women  "Bachelor Degree"      
## 10  1973 women_advanced_degree   32.7 Women  " Advanced Degree"     
## # ℹ 490 more rows
…
less_hs_data
## # A tibble: 300 × 5
##     year demographic                 Wages Race     Gender
##    <dbl> <chr>                       <dbl> <chr>    <chr> 
##  1  1973 white_men_less_than_hs       22.0 White    Men   
##  2  1973 black_men_less_than_hs       18.6 Black    Men   
##  3  1973 hispanic_men_less_than_hs    18.4 Hispanic Men   
##  4  1973 white_women_less_than_hs     13.1 White    Women 
##  5  1973 black_women_less_than_hs     12.0 Black    Women 
##  6  1973 hispanic_women_less_than_hs  12.9 Hispanic Women 
##  7  1974 white_men_less_than_hs       21.3 White    Men   
##  8  1974 black_men_less_than_hs       18.2 Black    Men   
##  9  1974 hispanic_men_less_than_hs    19.3 Hispanic Men   
## 10  1974 white_women_less_than_hs     13.0 White    Women 
## # ℹ 290 more rows
…
